Madgwick_Quaternion_Filter_Unit_Vivado_2019_2_Project/Madgwick_Quaternion_Filter_Unit_Vivado_2019_2_Project.sim/sim_1/impl/timing/xsim/simulation.vcd
$date
   Mon Dec 30 15:14:06 2024
$end
$version
  2019.2
$end
$timescale
  1ps
$end
$scope module madgwick_tb $end
$var reg 1 ! clk $end
$var reg 1 " rst_n $end
$var reg 1 # valid_in $end
$var wire 1 $ ready_in $end
$var reg 17 % a_x [16:0] $end
$var reg 17 & a_y [16:0] $end
$var reg 17 ' a_z [16:0] $end
$var reg 22 ( w_x [21:0] $end
$var reg 22 ) w_y [21:0] $end
$var reg 22 * w_z [21:0] $end
$var wire 1 + valid_out $end
$var reg 1 , ready_out $end
$var wire 16 - q_w_norm_output [15:0] $end
$var wire 16 . q_x_norm_output [15:0] $end
$var wire 16 / q_y_norm_output [15:0] $end
$var wire 16 0 q_z_norm_output [15:0] $end
$upscope $end
$enddefinitions $end
#0
$dumpvars
0!
0"
0#
x$
b0 %
b0 &
b0 '
b0 (
b0 )
b0 *
x+
0,
bx -
bx .
bx /
bx 0
$end
#3483
bx 0
#3488
bx -
#3516
bx .
#3521
bx /
#3566
x+
#3569
x$
#5000
1!
#5790
b0xxxxxxxxxxxxxxx -
#6006
bx0xxxxxxx /
#6182
bx0xxxxx0x /
#6183
bx0x0xxx0x /
#6196
bx0x0x0x0x /
#6197
bx0x0x0000 /
#6247
b1xxxxxxxxxxxxxx -
#6267
bx0xxx0x0x0000 /
#6269
b10xxxxxxxxxxxxx -
#6282
bx0x0x0x0x0000 /
#6292
bx0xx0x0x0x0x0000 /
#6294
b10x0xxxxxxxxxxx -
#6318
bx0xx 0
#6320
bx0xx0x0x0x000000 /
#6361
bx00x0x0x0x000000 /
#6362
bx0000x0x0x000000 /
#6384
bx000000x0x000000 /
#6389
bx00000000x000000 /
#6436
bx00x 0
#6443
bx0xx00x 0
#6444
b10x0x0xxxxxxxxx -
#6453
b10x0x0xxxx0xxxx -
#6469
b10x0x00xxx0xxxx -
#6470
bx0xx000 0
#6476
b1000x00xxx0xxxx -
#6477
b0x000000 /
#6482
bx00xx000 0
#6499
b0 /
#6577
b1000x00x0x0xxxx -
#6586
b1000x00x0x00xxx -
#6597
bx00x0000 0
#6600
b1000000x0x00xxx -
#6608
b1000000x0000xxx -
bx0000000 0
#6647
bx00000000 0
#6648
bx000000000 0
#6656
bx0xxx000000000 0
#6665
bx0xx0000000000 0
#6666
bx0x00000000000 0
#6674
b1000000x0000x0x -
#6678
bx0x0x00000000000 0
#6680
b1000000x000000x -
#6684
bx0x0000000000000 0
#6732
b10000000000000x -
#6735
b0x0000000000000 0
#6819
b0 0
#6831
b100000000000000 -
#7594
bx0 .
#7603
0+
#7623
bx0xxxxxxxx0 .
#7773
bx00xxxxxxx0 .
#7793
bx00xxxxx0x0 .
#7890
bx0xxx00xxxxx0x0 .
#7900
bx0xx000xxxxx0x0 .
#7919
bx00x000xxxxx0x0 .
#7936
bx00x000xx0xx0x0 .
#7979
bx000x000xx0xx0x0 .
#8025
bx0000000xx0xx0x0 .
#8068
bx0000000xx0x00x0 .
#8088
bx0000000xx0000x0 .
#8097
bx00000000x0000x0 .
#8107
b0x0000x0 .
#8224
b0x000000 .
#8231
b0 .
#8625
0$
#10000
0!
#15000
1!
#20000
0!
#25000
1!
1"
1#
b11110111000010100 %
b101001010001111 &
b11000011110110 '
b1111110001111010111000 (
b101110000101001 )
b1111110101010001111011 *
#30000
0!
#35000
1!
#40000
0!
#45000
1!
#50000
0!
#55000
1!
#60000
0!
#65000
1!
#70000
0!
#75000
1!
#80000
0!
#85000
1!
#90000
0!
#95000
1!
#100000
0!
#105000
1!
#106707
b0 -
#108941
1$
#110000
0!
#115000
1!
0#
1,
#120000
0!
#125000
1!
#128941
0$
