Madgwick_Quaternion_Filter_Unit_Vivado_2019_2_Project/Madgwick_Quaternion_Filter_Unit_Vivado_2019_2_Project.sim/sim_1/synth/func/xsim/simulation.vcd
$date
   Sat Dec 28 13:25:13 2024
$end
$version
  2019.2
$end
$timescale
  1ps
$end
$scope module madgwick_tb $end
$var reg 1 ! clk $end
$var reg 1 " rst_n $end
$var reg 1 # valid_in $end
$var wire 1 $ ready_in $end
$var reg 17 % a_x [16:0] $end
$var reg 17 & a_y [16:0] $end
$var reg 17 ' a_z [16:0] $end
$var reg 22 ( w_x [21:0] $end
$var reg 22 ) w_y [21:0] $end
$var reg 22 * w_z [21:0] $end
$var wire 1 + valid_out $end
$var reg 1 , ready_out $end
$var wire 16 - q_w_norm_output [15:0] $end
$var wire 16 . q_x_norm_output [15:0] $end
$var wire 16 / q_y_norm_output [15:0] $end
$var wire 16 0 q_z_norm_output [15:0] $end
$upscope $end
$enddefinitions $end
#0
$dumpvars
0!
0"
0#
x$
b0 %
b0 &
b0 '
b0 (
b0 )
b0 *
x+
0,
bx -
bx .
bx /
bx 0
$end
#5000
1!
0$
0+
b100000000000000 -
b0 .
b0 /
b0 0
#10000
0!
#15000
1!
#20000
0!
#25000
1!
1"
1#
1$
b11110111000010100 %
b101001010001111 &
b11000011110110 '
b1111110001111010111000 (
b101110000101001 )
b1111110101010001111011 *
b0 -
#30000
0!
#35000
1!
0#
1,
#40000
0!
#45000
1!
0$
#50000
0!
#55000
1!
#60000
0!
#65000
1!
#70000
0!
#75000
1!
#80000
0!
#85000
1!
#90000
0!
#95000
1!
#100000
0!
#105000
1!
#110000
0!
#115000
1!
#120000
0!
#125000
1!
#130000
0!
#135000
1!
#140000
0!
#145000
1!
#150000
0!
#155000
1!
#160000
0!
#165000
1!
#170000
0!
#175000
1!
#180000
0!
#185000
1!
#190000
0!
#195000
1!
#200000
0!
#205000
1!
#210000
0!
#215000
1!
#220000
0!
#225000
1!
#230000
0!
#235000
1!
#240000
0!
#245000
1!
#250000
0!
#255000
1!
#260000
0!
#265000
1!
#270000
0!
#275000
1!
#280000
0!
#285000
1!
#290000
0!
#295000
1!
#300000
0!
#305000
1!
#310000
0!
#315000
1!
#320000
0!
#325000
1!
#330000
0!
#335000
1!
#340000
0!
#345000
1!
#350000
0!
#355000
1!
#360000
0!
#365000
1!
#370000
0!
#375000
1!
#380000
0!
#385000
1!
#390000
0!
#395000
1!
#400000
0!
#405000
1!
#410000
0!
#415000
1!
#420000
0!
#425000
1!
#430000
0!
#435000
1!
#440000
0!
#445000
1!
#450000
0!
#455000
1!
#460000
0!
#465000
1!
#470000
0!
#475000
1!
#480000
0!
#485000
1!
#490000
0!
#495000
1!
#500000
0!
#505000
1!
#510000
0!
#515000
1!
#520000
0!
#525000
1!
#530000
0!
#535000
1!
#540000
0!
#545000
1!
#550000
0!
#555000
1!
#560000
0!
#565000
1!
#570000
0!
#575000
1!
#580000
0!
#585000
1!
#590000
0!
#595000
1!
#600000
0!
#605000
1!
#610000
0!
#615000
1!
#620000
0!
#625000
1!
#630000
0!
#635000
1!
#640000
0!
#645000
1!
#650000
0!
#655000
1!
#660000
0!
#665000
1!
#670000
0!
#675000
1!
#680000
0!
#685000
1!
b100000000000000 -
b100 .
b1 /
#690000
0!
#695000
1!
#700000
0!
#705000
1!
1+
#710000
0!
#715000
1!
0,
#720000
0!
#725000
1!
1#
1$
b11110110011110110 %
b101001000111101 &
b11000110011010 '
b1111110001110000101001 (
b101000111101100 )
b1111110100011110101110 *
0+
#730000
0!
#735000
1!
0#
1,
#740000
0!
#745000
1!
0$
